info face="Envy Code R for Powerline" size=-32 bold=0 italic=0 charset="ANSI" unicode=0 stretchH=100 smooth=1 aa=1 padding=0,0,0,0 spacing=1,1 outline=0
common lineHeight=37 base=30 scaleW=256 scaleH=256 pages=1 packed=0 alphaChnl=1 redChnl=0 greenChnl=0 blueChnl=0
page id=0 file="sh_font_0.png"
chars count=95
char id=32   x=192   y=152   width=1     height=37    xoffset=0     yoffset=0     xadvance=17    page=0  chnl=15
char id=33   x=252   y=76    width=3     height=37    xoffset=7     yoffset=0     xadvance=17    page=0  chnl=15
char id=34   x=75    y=152   width=10    height=37    xoffset=2     yoffset=0     xadvance=17    page=0  chnl=15
char id=35   x=73    y=38    width=13    height=37    xoffset=2     yoffset=0     xadvance=17    page=0  chnl=15
char id=36   x=87    y=38    width=13    height=37    xoffset=2     yoffset=0     xadvance=17    page=0  chnl=15
char id=37   x=18    y=0     width=15    height=37    xoffset=0     yoffset=0     xadvance=17    page=0  chnl=15
char id=38   x=34    y=0     width=15    height=37    xoffset=0     yoffset=0     xadvance=17    page=0  chnl=15
char id=39   x=184   y=152   width=3     height=37    xoffset=7     yoffset=0     xadvance=17    page=0  chnl=15
char id=40   x=247   y=0     width=8     height=37    xoffset=4     yoffset=0     xadvance=17    page=0  chnl=15
char id=41   x=142   y=152   width=7     height=37    xoffset=5     yoffset=0     xadvance=17    page=0  chnl=15
char id=42   x=129   y=38    width=13    height=37    xoffset=2     yoffset=0     xadvance=17    page=0  chnl=15
char id=43   x=143   y=38    width=13    height=37    xoffset=2     yoffset=0     xadvance=17    page=0  chnl=15
char id=44   x=171   y=152   width=6     height=37    xoffset=4     yoffset=0     xadvance=17    page=0  chnl=15
char id=45   x=217   y=0     width=14    height=37    xoffset=1     yoffset=0     xadvance=17    page=0  chnl=15
char id=46   x=157   y=152   width=6     height=37    xoffset=4     yoffset=0     xadvance=17    page=0  chnl=15
char id=47   x=157   y=38    width=13    height=37    xoffset=2     yoffset=0     xadvance=17    page=0  chnl=15
char id=48   x=171   y=38    width=13    height=37    xoffset=2     yoffset=0     xadvance=17    page=0  chnl=15
char id=49   x=134   y=152   width=7     height=37    xoffset=5     yoffset=0     xadvance=17    page=0  chnl=15
char id=50   x=185   y=38    width=13    height=37    xoffset=2     yoffset=0     xadvance=17    page=0  chnl=15
char id=51   x=97    y=0     width=14    height=37    xoffset=1     yoffset=0     xadvance=17    page=0  chnl=15
char id=52   x=199   y=38    width=13    height=37    xoffset=2     yoffset=0     xadvance=17    page=0  chnl=15
char id=53   x=213   y=38    width=13    height=37    xoffset=2     yoffset=0     xadvance=17    page=0  chnl=15
char id=54   x=82    y=0     width=14    height=37    xoffset=1     yoffset=0     xadvance=17    page=0  chnl=15
char id=55   x=157   y=0     width=14    height=37    xoffset=1     yoffset=0     xadvance=17    page=0  chnl=15
char id=56   x=227   y=38    width=13    height=37    xoffset=2     yoffset=0     xadvance=17    page=0  chnl=15
char id=57   x=241   y=38    width=13    height=37    xoffset=1     yoffset=0     xadvance=17    page=0  chnl=15
char id=58   x=150   y=152   width=6     height=37    xoffset=4     yoffset=0     xadvance=17    page=0  chnl=15
char id=59   x=164   y=152   width=6     height=37    xoffset=4     yoffset=0     xadvance=17    page=0  chnl=15
char id=60   x=86    y=152   width=10    height=37    xoffset=2     yoffset=0     xadvance=17    page=0  chnl=15
char id=61   x=66    y=0     width=15    height=37    xoffset=0     yoffset=0     xadvance=17    page=0  chnl=15
char id=62   x=97    y=152   width=9     height=37    xoffset=3     yoffset=0     xadvance=17    page=0  chnl=15
char id=63   x=0     y=76    width=13    height=37    xoffset=2     yoffset=0     xadvance=17    page=0  chnl=15
char id=64   x=50    y=0     width=15    height=37    xoffset=0     yoffset=0     xadvance=17    page=0  chnl=15
char id=65   x=14    y=76    width=13    height=37    xoffset=2     yoffset=0     xadvance=17    page=0  chnl=15
char id=66   x=28    y=76    width=13    height=37    xoffset=2     yoffset=0     xadvance=17    page=0  chnl=15
char id=67   x=42    y=76    width=13    height=37    xoffset=1     yoffset=0     xadvance=17    page=0  chnl=15
char id=68   x=127   y=0     width=14    height=37    xoffset=1     yoffset=0     xadvance=17    page=0  chnl=15
char id=69   x=56    y=76    width=13    height=37    xoffset=2     yoffset=0     xadvance=17    page=0  chnl=15
char id=70   x=70    y=76    width=13    height=37    xoffset=2     yoffset=0     xadvance=17    page=0  chnl=15
char id=71   x=84    y=76    width=13    height=37    xoffset=2     yoffset=0     xadvance=17    page=0  chnl=15
char id=72   x=98    y=76    width=13    height=37    xoffset=2     yoffset=0     xadvance=17    page=0  chnl=15
char id=73   x=112   y=76    width=13    height=37    xoffset=2     yoffset=0     xadvance=17    page=0  chnl=15
char id=74   x=187   y=0     width=14    height=37    xoffset=1     yoffset=0     xadvance=17    page=0  chnl=15
char id=75   x=126   y=76    width=13    height=37    xoffset=1     yoffset=0     xadvance=17    page=0  chnl=15
char id=76   x=140   y=76    width=13    height=37    xoffset=2     yoffset=0     xadvance=17    page=0  chnl=15
char id=77   x=154   y=76    width=13    height=37    xoffset=2     yoffset=0     xadvance=17    page=0  chnl=15
char id=78   x=168   y=76    width=13    height=37    xoffset=2     yoffset=0     xadvance=17    page=0  chnl=15
char id=79   x=182   y=76    width=13    height=37    xoffset=2     yoffset=0     xadvance=17    page=0  chnl=15
char id=80   x=196   y=76    width=13    height=37    xoffset=2     yoffset=0     xadvance=17    page=0  chnl=15
char id=81   x=112   y=0     width=14    height=37    xoffset=2     yoffset=0     xadvance=17    page=0  chnl=15
char id=82   x=15    y=38    width=14    height=37    xoffset=2     yoffset=0     xadvance=17    page=0  chnl=15
char id=83   x=210   y=76    width=13    height=37    xoffset=2     yoffset=0     xadvance=17    page=0  chnl=15
char id=84   x=224   y=76    width=13    height=37    xoffset=2     yoffset=0     xadvance=17    page=0  chnl=15
char id=85   x=238   y=76    width=13    height=37    xoffset=2     yoffset=0     xadvance=17    page=0  chnl=15
char id=86   x=0     y=114   width=13    height=37    xoffset=2     yoffset=0     xadvance=17    page=0  chnl=15
char id=87   x=14    y=114   width=13    height=37    xoffset=2     yoffset=0     xadvance=17    page=0  chnl=15
char id=88   x=28    y=114   width=13    height=37    xoffset=2     yoffset=0     xadvance=17    page=0  chnl=15
char id=89   x=237   y=114   width=12    height=37    xoffset=3     yoffset=0     xadvance=17    page=0  chnl=15
char id=90   x=42    y=114   width=13    height=37    xoffset=1     yoffset=0     xadvance=17    page=0  chnl=15
char id=91   x=116   y=152   width=8     height=37    xoffset=4     yoffset=0     xadvance=17    page=0  chnl=15
char id=92   x=0     y=38    width=14    height=37    xoffset=1     yoffset=0     xadvance=17    page=0  chnl=15
char id=93   x=125   y=152   width=8     height=37    xoffset=4     yoffset=0     xadvance=17    page=0  chnl=15
char id=94   x=224   y=114   width=12    height=37    xoffset=3     yoffset=0     xadvance=17    page=0  chnl=15
char id=95   x=0     y=0     width=17    height=37    xoffset=0     yoffset=0     xadvance=17    page=0  chnl=15
char id=96   x=107   y=152   width=8     height=37    xoffset=2     yoffset=0     xadvance=17    page=0  chnl=15
char id=97   x=56    y=114   width=13    height=37    xoffset=2     yoffset=0     xadvance=17    page=0  chnl=15
char id=98   x=70    y=114   width=13    height=37    xoffset=2     yoffset=0     xadvance=17    page=0  chnl=15
char id=99   x=84    y=114   width=13    height=37    xoffset=2     yoffset=0     xadvance=17    page=0  chnl=15
char id=100  x=98    y=114   width=13    height=37    xoffset=2     yoffset=0     xadvance=17    page=0  chnl=15
char id=101  x=112   y=114   width=13    height=37    xoffset=2     yoffset=0     xadvance=17    page=0  chnl=15
char id=102  x=142   y=0     width=14    height=37    xoffset=1     yoffset=0     xadvance=17    page=0  chnl=15
char id=103  x=126   y=114   width=13    height=37    xoffset=2     yoffset=0     xadvance=17    page=0  chnl=15
char id=104  x=210   y=114   width=13    height=37    xoffset=2     yoffset=0     xadvance=17    page=0  chnl=15
char id=105  x=250   y=114   width=5     height=37    xoffset=5     yoffset=0     xadvance=17    page=0  chnl=15
char id=106  x=39    y=152   width=11    height=37    xoffset=1     yoffset=0     xadvance=17    page=0  chnl=15
char id=107  x=140   y=114   width=13    height=37    xoffset=2     yoffset=0     xadvance=17    page=0  chnl=15
char id=108  x=178   y=152   width=5     height=37    xoffset=5     yoffset=0     xadvance=17    page=0  chnl=15
char id=109  x=51    y=152   width=11    height=37    xoffset=1     yoffset=0     xadvance=17    page=0  chnl=15
char id=110  x=154   y=114   width=13    height=37    xoffset=2     yoffset=0     xadvance=17    page=0  chnl=15
char id=111  x=168   y=114   width=13    height=37    xoffset=2     yoffset=0     xadvance=17    page=0  chnl=15
char id=112  x=182   y=114   width=13    height=37    xoffset=2     yoffset=0     xadvance=17    page=0  chnl=15
char id=113  x=196   y=114   width=13    height=37    xoffset=2     yoffset=0     xadvance=17    page=0  chnl=15
char id=114  x=0     y=152   width=12    height=37    xoffset=2     yoffset=0     xadvance=17    page=0  chnl=15
char id=115  x=115   y=38    width=13    height=37    xoffset=2     yoffset=0     xadvance=17    page=0  chnl=15
char id=116  x=232   y=0     width=14    height=37    xoffset=1     yoffset=0     xadvance=17    page=0  chnl=15
char id=117  x=45    y=38    width=13    height=37    xoffset=2     yoffset=0     xadvance=17    page=0  chnl=15
char id=118  x=59    y=38    width=13    height=37    xoffset=2     yoffset=0     xadvance=17    page=0  chnl=15
char id=119  x=63    y=152   width=11    height=37    xoffset=4     yoffset=0     xadvance=17    page=0  chnl=15
char id=120  x=13    y=152   width=12    height=37    xoffset=3     yoffset=0     xadvance=17    page=0  chnl=15
char id=121  x=101   y=38    width=13    height=37    xoffset=2     yoffset=0     xadvance=17    page=0  chnl=15
char id=122  x=26    y=152   width=12    height=37    xoffset=2     yoffset=0     xadvance=17    page=0  chnl=15
char id=123  x=202   y=0     width=14    height=37    xoffset=1     yoffset=0     xadvance=17    page=0  chnl=15
char id=124  x=188   y=152   width=3     height=37    xoffset=6     yoffset=0     xadvance=17    page=0  chnl=15
char id=125  x=172   y=0     width=14    height=37    xoffset=1     yoffset=0     xadvance=17    page=0  chnl=15
char id=126  x=30    y=38    width=14    height=37    xoffset=1     yoffset=0     xadvance=17    page=0  chnl=15
